<?xml version="1.0" encoding="UTF-8" standalone="no"?>
<!-- Created with Inkscape (http://www.inkscape.org/) -->

<svg
   width="1089.9355"
   height="697.60138"
   viewBox="0 0 1089.9355 697.60138"
   version="1.1"
   id="SVGRoot"
   sodipodi:docname="porous_media.svg"
   inkscape:version="1.2 (dc2aedaf03, 2022-05-15)"
   inkscape:export-filename="porous_media.pdf"
   inkscape:export-xdpi="96"
   inkscape:export-ydpi="96"
   xmlns:inkscape="http://www.inkscape.org/namespaces/inkscape"
   xmlns:sodipodi="http://sodipodi.sourceforge.net/DTD/sodipodi-0.dtd"
   xmlns="http://www.w3.org/2000/svg"
   xmlns:svg="http://www.w3.org/2000/svg">
  <sodipodi:namedview
     id="namedview347"
     pagecolor="#ffffff"
     bordercolor="#666666"
     borderopacity="1.0"
     inkscape:showpageshadow="2"
     inkscape:pageopacity="0.0"
     inkscape:pagecheckerboard="0"
     inkscape:deskcolor="#d1d1d1"
     inkscape:document-units="px"
     showgrid="false"
     inkscape:zoom="1.044997"
     inkscape:cx="550.71931"
     inkscape:cy="352.15414"
     inkscape:window-width="1920"
     inkscape:window-height="1017"
     inkscape:window-x="-8"
     inkscape:window-y="-8"
     inkscape:window-maximized="1"
     inkscape:current-layer="layer4"
     showguides="true">
    <inkscape:grid
       type="xygrid"
       id="grid357"
       originx="-150.20173"
       originy="-8.5927372" />
  </sodipodi:namedview>
  <defs
     id="defs342">
    <marker
       style="overflow:visible"
       id="TriangleStart"
       refX="0"
       refY="0"
       orient="auto-start-reverse"
       inkscape:stockid="TriangleStart"
       markerWidth="4.5"
       markerHeight="4.5"
       viewBox="0 0 5.3244081 6.1553851"
       inkscape:isstock="true"
       inkscape:collect="always"
       preserveAspectRatio="none">
      <path
         transform="scale(0.5)"
         style="fill:context-stroke;fill-rule:evenodd;stroke:context-stroke;stroke-width:1pt"
         d="M 5.77,0 -2.88,5 V -5 Z"
         id="path135" />
    </marker>
    <marker
       style="overflow:visible"
       id="TriangleStart-8"
       refX="0"
       refY="0"
       orient="auto-start-reverse"
       inkscape:stockid="TriangleStart"
       markerWidth="4.5"
       markerHeight="4.5"
       viewBox="0 0 5.3244081 6.1553851"
       inkscape:isstock="true"
       inkscape:collect="always"
       preserveAspectRatio="none">
      <path
         transform="scale(0.5)"
         style="fill:context-stroke;fill-rule:evenodd;stroke:context-stroke;stroke-width:1pt"
         d="M 5.77,0 -2.88,5 V -5 Z"
         id="path135-9" />
    </marker>
    <marker
       style="overflow:visible"
       id="TriangleStart-5"
       refX="0"
       refY="0"
       orient="auto-start-reverse"
       inkscape:stockid="TriangleStart"
       markerWidth="4.5"
       markerHeight="4.5"
       viewBox="0 0 5.3244081 6.1553851"
       inkscape:isstock="true"
       inkscape:collect="always"
       preserveAspectRatio="none">
      <path
         transform="scale(0.5)"
         style="fill:context-stroke;fill-rule:evenodd;stroke:context-stroke;stroke-width:1pt"
         d="M 5.77,0 -2.88,5 V -5 Z"
         id="path135-4" />
    </marker>
    <marker
       style="overflow:visible"
       id="TriangleStart-83"
       refX="0"
       refY="0"
       orient="auto-start-reverse"
       inkscape:stockid="TriangleStart"
       markerWidth="4.5"
       markerHeight="4.5"
       viewBox="0 0 5.3244081 6.1553851"
       inkscape:isstock="true"
       inkscape:collect="always"
       preserveAspectRatio="none">
      <path
         transform="scale(0.5)"
         style="fill:context-stroke;fill-rule:evenodd;stroke:context-stroke;stroke-width:1pt"
         d="M 5.77,0 -2.88,5 V -5 Z"
         id="path135-6" />
    </marker>
    <marker
       style="overflow:visible"
       id="TriangleStart-5-7-3"
       refX="0"
       refY="0"
       orient="auto-start-reverse"
       inkscape:stockid="TriangleStart"
       markerWidth="4.5"
       markerHeight="4.5"
       viewBox="0 0 5.3244081 6.1553851"
       inkscape:isstock="true"
       inkscape:collect="always"
       preserveAspectRatio="none">
      <path
         transform="scale(0.5)"
         style="fill:context-stroke;fill-rule:evenodd;stroke:context-stroke;stroke-width:1pt"
         d="M 5.77,0 -2.88,5 V -5 Z"
         id="path135-4-8-0" />
    </marker>
    <marker
       style="overflow:visible"
       id="TriangleStart-5-7-3-4"
       refX="0"
       refY="0"
       orient="auto-start-reverse"
       inkscape:stockid="TriangleStart"
       markerWidth="4.5"
       markerHeight="4.5"
       viewBox="0 0 5.3244081 6.1553851"
       inkscape:isstock="true"
       inkscape:collect="always"
       preserveAspectRatio="none">
      <path
         transform="scale(0.5)"
         style="fill:context-stroke;fill-rule:evenodd;stroke:context-stroke;stroke-width:1pt"
         d="M 5.77,0 -2.88,5 V -5 Z"
         id="path135-4-8-0-8" />
    </marker>
    <marker
       style="overflow:visible"
       id="TriangleStart-83-7"
       refX="0"
       refY="0"
       orient="auto-start-reverse"
       inkscape:stockid="TriangleStart"
       markerWidth="4.5"
       markerHeight="4.5"
       viewBox="0 0 5.3244081 6.1553851"
       inkscape:isstock="true"
       inkscape:collect="always"
       preserveAspectRatio="none">
      <path
         transform="scale(0.5)"
         style="fill:context-stroke;fill-rule:evenodd;stroke:context-stroke;stroke-width:1pt"
         d="M 5.77,0 -2.88,5 V -5 Z"
         id="path135-6-3" />
    </marker>
    <marker
       style="overflow:visible"
       id="TriangleStart-5-5"
       refX="0"
       refY="0"
       orient="auto-start-reverse"
       inkscape:stockid="TriangleStart"
       markerWidth="4.5"
       markerHeight="4.5"
       viewBox="0 0 5.3244081 6.1553851"
       inkscape:isstock="true"
       inkscape:collect="always"
       preserveAspectRatio="none">
      <path
         transform="scale(0.5)"
         style="fill:context-stroke;fill-rule:evenodd;stroke:context-stroke;stroke-width:1pt"
         d="M 5.77,0 -2.88,5 V -5 Z"
         id="path135-4-8" />
    </marker>
  </defs>
  <g
     inkscape:label="Layer 1"
     inkscape:groupmode="layer"
     id="layer1"
     transform="translate(-150.20174,-8.5927372)"
     style="display:inline">
    <path
       style="fill:none;stroke:#000000;stroke-width:2;stroke-linecap:butt;stroke-linejoin:miter;stroke-dasharray:none;stroke-opacity:1"
       d="M 150.20174,71.281736 H 1240.0932"
       id="path359" />
    <path
       style="fill:none;stroke:#000000;stroke-width:1px;stroke-linecap:butt;stroke-linejoin:miter;stroke-opacity:1"
       d="M 150.24582,705.69413 H 1240.1373"
       id="path359-6" />
    <circle
       style="opacity:0.8;fill:none;stroke:#000000;stroke-width:4;stroke-dasharray:none;stroke-opacity:1"
       id="path520"
       cx="695.19159"
       cy="117.96214"
       r="32.321686" />
    <circle
       style="opacity:0.8;fill:none;stroke:#000000;stroke-width:4;stroke-dasharray:none;stroke-opacity:1"
       id="path520-7"
       cx="1015.0413"
       cy="117.96214"
       r="32.321686" />
    <circle
       style="opacity:0.8;fill:none;stroke:#000000;stroke-width:4;stroke-dasharray:none;stroke-opacity:1"
       id="path520-56"
       cx="375.34195"
       cy="117.96214"
       r="32.321686" />
    <circle
       style="opacity:0.8;fill:none;stroke:#000000;stroke-width:4;stroke-dasharray:none;stroke-opacity:1"
       id="path520-2"
       cx="215.41713"
       cy="117.96214"
       r="32.321686" />
    <circle
       style="opacity:0.8;fill:none;stroke:#000000;stroke-width:4;stroke-dasharray:none;stroke-opacity:1"
       id="path520-9"
       cx="1174.9659"
       cy="117.96214"
       r="32.321686" />
    <circle
       style="opacity:0.8;fill:none;stroke:#000000;stroke-width:4;stroke-dasharray:none;stroke-opacity:1"
       id="path520-5"
       cx="535.26678"
       cy="117.96214"
       r="32.321686" />
    <circle
       style="opacity:0.8;fill:none;stroke:#000000;stroke-width:4;stroke-dasharray:none;stroke-opacity:1"
       id="path520-3"
       cx="855.11639"
       cy="117.96214"
       r="32.321686" />
    <circle
       style="opacity:0.8;fill:none;stroke:#000000;stroke-width:4;stroke-dasharray:none;stroke-opacity:1"
       id="path520-6"
       cx="695.19159"
       cy="284.93536"
       r="32.321686" />
    <circle
       style="opacity:0.8;fill:none;stroke:#000000;stroke-width:4;stroke-dasharray:none;stroke-opacity:1"
       id="path520-7-2"
       cx="1015.0413"
       cy="284.93536"
       r="32.321686" />
    <circle
       style="opacity:0.8;fill:none;stroke:#000000;stroke-width:4;stroke-dasharray:none;stroke-opacity:1"
       id="path520-56-6"
       cx="375.34195"
       cy="284.93536"
       r="32.321686" />
    <circle
       style="opacity:0.8;fill:none;stroke:#000000;stroke-width:4;stroke-dasharray:none;stroke-opacity:1"
       id="path520-2-1"
       cx="215.41713"
       cy="284.93536"
       r="32.321686" />
    <circle
       style="opacity:0.8;fill:none;stroke:#000000;stroke-width:4;stroke-dasharray:none;stroke-opacity:1"
       id="path520-9-8"
       cx="1174.9659"
       cy="284.93536"
       r="32.321686" />
    <circle
       style="opacity:0.8;fill:none;stroke:#000000;stroke-width:4;stroke-dasharray:none;stroke-opacity:1"
       id="path520-5-7"
       cx="535.26678"
       cy="284.93536"
       r="32.321686" />
    <circle
       style="opacity:0.8;fill:none;stroke:#000000;stroke-width:4;stroke-dasharray:none;stroke-opacity:1"
       id="path520-3-9"
       cx="855.11639"
       cy="284.93536"
       r="32.321686" />
    <circle
       style="opacity:0.8;fill:none;stroke:#000000;stroke-width:4;stroke-dasharray:none;stroke-opacity:1"
       id="path520-0"
       cx="695.19159"
       cy="451.9086"
       r="32.321686" />
    <circle
       style="opacity:0.8;fill:none;stroke:#000000;stroke-width:4;stroke-dasharray:none;stroke-opacity:1"
       id="path520-7-23"
       cx="1015.0413"
       cy="451.9086"
       r="32.321686" />
    <circle
       style="opacity:0.8;fill:none;stroke:#000000;stroke-width:4;stroke-dasharray:none;stroke-opacity:1"
       id="path520-56-7"
       cx="375.34195"
       cy="451.9086"
       r="32.321686" />
    <circle
       style="opacity:0.8;fill:none;stroke:#000000;stroke-width:4;stroke-dasharray:none;stroke-opacity:1"
       id="path520-2-5"
       cx="215.41713"
       cy="451.9086"
       r="32.321686" />
    <circle
       style="opacity:0.8;fill:none;stroke:#000000;stroke-width:4;stroke-dasharray:none;stroke-opacity:1"
       id="path520-9-9"
       cx="1174.9659"
       cy="451.9086"
       r="32.321686" />
    <circle
       style="opacity:0.8;fill:none;stroke:#000000;stroke-width:4;stroke-dasharray:none;stroke-opacity:1"
       id="path520-5-2"
       cx="535.26678"
       cy="451.9086"
       r="32.321686" />
    <circle
       style="opacity:0.8;fill:none;stroke:#000000;stroke-width:4;stroke-dasharray:none;stroke-opacity:1"
       id="path520-3-2"
       cx="855.11639"
       cy="451.9086"
       r="32.321686" />
    <circle
       style="opacity:0.8;fill:none;stroke:#000000;stroke-width:4;stroke-dasharray:none;stroke-opacity:1"
       id="path520-97"
       cx="695.19159"
       cy="618.88184"
       r="32.321686" />
    <circle
       style="opacity:0.8;fill:none;stroke:#000000;stroke-width:4;stroke-dasharray:none;stroke-opacity:1"
       id="path520-7-3"
       cx="1015.0413"
       cy="618.88184"
       r="32.321686" />
    <circle
       style="opacity:0.8;fill:none;stroke:#000000;stroke-width:4;stroke-dasharray:none;stroke-opacity:1"
       id="path520-56-61"
       cx="375.34195"
       cy="618.88184"
       r="32.321686" />
    <circle
       style="opacity:0.8;fill:none;stroke:#000000;stroke-width:4;stroke-dasharray:none;stroke-opacity:1"
       id="path520-2-2"
       cx="215.41713"
       cy="618.88184"
       r="32.321686" />
    <circle
       style="opacity:0.8;fill:none;stroke:#000000;stroke-width:4;stroke-dasharray:none;stroke-opacity:1"
       id="path520-9-93"
       cx="1174.9659"
       cy="618.88184"
       r="32.321686" />
    <circle
       style="opacity:0.8;fill:none;stroke:#000000;stroke-width:4;stroke-dasharray:none;stroke-opacity:1"
       id="path520-5-1"
       cx="535.26678"
       cy="618.88184"
       r="32.321686" />
    <circle
       style="opacity:0.8;fill:none;stroke:#000000;stroke-width:4;stroke-dasharray:none;stroke-opacity:1"
       id="path520-3-94"
       cx="855.11639"
       cy="618.88184"
       r="32.321686" />
    <rect
       style="opacity:0.8;fill:#00ffff;fill-opacity:1;stroke:none;stroke-width:2.21289;stroke-dasharray:none;stroke-opacity:1"
       id="rect10946"
       width="1084.1925"
       height="59.720501"
       x="153.05122"
       y="8.5927372" />
    <text
       xml:space="preserve"
       style="font-style:normal;font-weight:normal;font-size:48px;line-height:1.25;font-family:sans-serif;fill:#000000;fill-opacity:1;stroke:none"
       x="622.90771"
       y="54.688766"
       id="text11002"><tspan
         sodipodi:role="line"
         id="tspan11000"
         x="622.90771"
         y="54.688766"
         style="font-size:48px">Puddle</tspan></text>
  </g>
  <g
     inkscape:groupmode="layer"
     id="layer2"
     inkscape:label="Layer 2"
     transform="translate(-150.20174,-8.5927372)"
     style="display:inline">
    <path
       style="opacity:0.8;fill:#cccccc;stroke:none;stroke-width:4.101;stroke-dasharray:none;stroke-opacity:1"
       d="M 151.74602,388.59286 V 72.79708 H 694.13553 1236.525 V 388.59286 704.38864 H 694.13553 151.74602 Z m 78.16388,261.71981 c 6.89108,-3.02595 14.22929,-10.34713 17.51371,-17.47307 1.76354,-3.82621 2.23033,-6.76439 2.23443,-14.06442 0.005,-8.03755 -0.36517,-9.98198 -2.86606,-15.07475 -12.55082,-25.55827 -49.77314,-25.86184 -62.19876,-0.50727 -12.37488,25.25104 6.72116,52.74072 34.82333,50.12989 2.53764,-0.23576 7.25965,-1.59043 10.49335,-3.01038 z m 159.94851,0 c 6.88769,-3.02446 14.22451,-10.34209 17.5189,-17.47307 1.78684,-3.86778 2.22598,-6.68509 2.19225,-14.06442 -0.0362,-7.92608 -0.44123,-10.05257 -2.87096,-15.07449 -12.36282,-25.55223 -49.73356,-25.85737 -62.15686,-0.50753 -12.35104,25.20239 6.77529,52.73569 34.82332,50.12989 2.53765,-0.23576 7.25966,-1.59043 10.49335,-3.01038 z m 159.94852,0 c 6.88769,-3.02446 14.2245,-10.34209 17.51889,-17.47307 1.78684,-3.86778 2.22598,-6.68509 2.19225,-14.06442 -0.0362,-7.92608 -0.44122,-10.05257 -2.87095,-15.07449 -5.75273,-11.8901 -17.79489,-19.27343 -31.43479,-19.27343 -13.9814,0 -24.81517,6.73581 -30.97798,19.2603 -3.04503,6.18831 -3.36179,7.69065 -3.28543,15.58202 0.10079,10.42133 2.23033,16.02548 8.79605,23.14844 10.15326,11.01498 25.89256,14.11658 40.06196,7.89465 z m 159.94851,0 c 6.90771,-3.03325 14.25244,-10.37157 17.48833,-17.47307 1.73374,-3.80486 2.20369,-6.80511 2.20303,-14.06442 -7.4e-4,-8.1539 -0.35023,-9.92525 -3.00314,-15.22083 -6.01658,-12.00989 -17.65692,-19.12709 -31.28282,-19.12709 -13.98139,0 -24.81517,6.73581 -30.97797,19.2603 -3.04503,6.18831 -3.36179,7.69065 -3.28544,15.58202 0.10079,10.42133 2.23033,16.02548 8.79605,23.14844 10.15326,11.01498 25.89256,14.11658 40.06196,7.89465 z m 152.98712,2.27292 c 9.58594,-1.55394 19.96556,-9.95737 24.3864,-19.74345 3.2761,-7.25207 3.15602,-21.39188 -0.24137,-28.42132 -11.74118,-24.29335 -45.29569,-27.20628 -60.40616,-5.24397 -6.50401,9.45326 -7.86852,23.53965 -3.28414,33.9034 2.73986,6.19391 9.78146,13.55286 15.96832,16.68798 5.05601,2.56207 13.41894,4.36694 17.48171,3.77286 1.12785,-0.16492 3.87071,-0.59489 6.09524,-0.9555 z m 159.94854,0 c 9.6309,-1.56123 20.1411,-10.10033 24.2606,-19.71087 7.7468,-18.07251 -1.2514,-39.63304 -19.3722,-46.41765 -16.6702,-6.24149 -35.86583,1.25074 -43.80444,17.09728 -2.65291,5.29558 -3.00241,7.06693 -3.00315,15.22083 -9.9e-4,10.94115 1.95294,16.19449 8.77698,23.5977 6.78294,7.35861 18.89561,12.36015 27.04691,11.16821 1.1279,-0.16492 3.8707,-0.59489 6.0953,-0.9555 z m 159.9485,0 c 15.911,-2.57926 28.4715,-19.64223 26.9347,-36.58991 -1.6492,-18.18763 -16.3014,-31.56842 -34.5679,-31.56842 -13.635,0 -25.6714,7.37798 -31.4426,19.27343 -2.4539,5.05797 -2.837,7.09152 -2.8404,15.07449 0,10.94118 1.9479,16.19224 8.774,23.5977 6.7829,7.35861 18.8956,12.36015 27.0469,11.16821 1.1279,-0.16492 3.8707,-0.59489 6.0953,-0.9555 z M 224.07136,485.43969 c 10.30988,-2.67075 18.30167,-9.27386 22.90286,-18.92319 2.30452,-4.8329 2.68132,-6.95864 2.63525,-14.86701 -0.0649,-11.14694 -2.38245,-16.84746 -9.92612,-24.4158 -7.40051,-7.4247 -12.57438,-9.42113 -24.36804,-9.40278 -8.06636,0.0125 -10.55744,0.41888 -14.49393,2.36421 -7.49032,3.70157 -12.81477,8.90742 -16.22277,15.86141 -6.63974,13.54832 -4.72232,28.25032 5.08366,38.97963 5.31923,5.82008 9.61286,8.42572 17.43055,10.57794 6.26414,1.72452 9.76715,1.68849 16.95854,-0.17441 z m 159.94851,0 c 10.30988,-2.67075 18.30167,-9.27386 22.90287,-18.92319 2.30452,-4.8329 2.68131,-6.95864 2.63524,-14.86701 -0.0649,-11.14694 -2.38244,-16.84746 -9.92612,-24.4158 -7.40051,-7.4247 -12.57438,-9.42113 -24.36804,-9.40278 -8.06636,0.0125 -10.55744,0.41888 -14.49392,2.36421 -7.66337,3.78708 -12.80417,8.88852 -16.47868,16.35251 -3.04846,6.19231 -3.36784,7.70228 -3.29819,15.59295 0.0933,10.57202 2.26234,16.13346 9.17396,23.52254 4.95974,5.30237 9.30451,7.86149 16.89434,9.95098 6.26415,1.72452 9.76715,1.68849 16.95854,-0.17441 z m 163.78892,-1.05479 c 6.54844,-2.24347 15.30601,-10.3769 18.7478,-17.41167 7.17991,-14.67522 2.57296,-33.2729 -10.6664,-43.05878 -6.64463,-4.91139 -14.15089,-6.97729 -23.15975,-6.37411 -12.95636,0.8675 -22.79029,7.4281 -28.4907,19.00729 -3.04847,6.19231 -3.36785,7.70228 -3.29819,15.59295 0.0581,6.58538 0.61395,9.9283 2.25719,13.57587 2.46085,5.46241 9.09761,13.10621 14.02208,16.14969 8.2536,5.101 20.1833,6.08335 30.58797,2.51876 z m 159.94851,0 c 6.65555,-2.28017 15.29941,-10.36887 18.8865,-17.6735 2.45581,-5.00094 2.86496,-7.08182 2.86496,-14.57082 0,-7.80764 -0.35893,-9.46579 -3.37532,-15.59295 -3.67092,-7.4567 -8.91645,-12.66444 -16.54076,-16.42157 -3.87077,-1.90745 -6.39516,-2.31184 -14.43184,-2.31184 -8.03667,0 -10.56106,0.40439 -14.43183,2.31184 -7.6271,3.75851 -12.86979,8.96446 -16.54076,16.42487 -3.03429,6.16649 -3.37087,7.74196 -3.33132,15.59296 0.0334,6.6334 0.56618,9.88614 2.21559,13.52741 2.45874,5.42799 9.19229,13.16368 14.09681,16.19484 8.2536,5.101 20.1833,6.08335 30.58797,2.51876 z m 159.94852,0 c 6.66097,-2.28203 15.30118,-10.36967 18.88099,-17.6735 2.44647,-4.99148 2.86025,-7.09549 2.86496,-14.56751 0.005,-7.80927 -0.35166,-9.45925 -3.36982,-15.59296 -3.67097,-7.46041 -8.91366,-12.66636 -16.54076,-16.42487 -3.87077,-1.90745 -6.39516,-2.31184 -14.43183,-2.31184 -8.03668,0 -10.56106,0.40439 -14.43184,2.31184 -7.62709,3.75851 -12.86978,8.96446 -16.54076,16.42487 -3.03429,6.16649 -3.37087,7.74196 -3.33131,15.59296 0.0334,6.6334 0.56617,9.88614 2.21558,13.52741 2.45875,5.42799 9.19229,13.16368 14.09682,16.19484 8.2536,5.101 20.18329,6.08335 30.58797,2.51876 z m 159.94848,0 c 6.661,-2.28203 15.3012,-10.36967 18.881,-17.6735 2.4465,-4.99148 2.8603,-7.09549 2.865,-14.56751 0.01,-7.80927 -0.3517,-9.45925 -3.3698,-15.59296 -3.6746,-7.4677 -8.8126,-12.56736 -16.4787,-16.35581 -6.8525,-3.38635 -22.1201,-3.4228 -28.9258,-0.069 -7.62706,3.7585 -12.86975,8.96445 -16.54072,16.42486 -3.0343,6.16649 -3.37088,7.74196 -3.33132,15.59296 0.0334,6.63341 0.56618,9.88614 2.21558,13.52741 2.45875,5.42799 9.19229,13.16368 14.09682,16.19484 8.25364,5.101 20.18334,6.08336 30.58794,2.51876 z m 159.9485,0 c 6.7028,-2.29634 15.3148,-10.37574 18.8385,-17.67344 2.3759,-4.92064 2.8245,-7.20167 2.865,-14.56757 0.043,-7.85529 -0.2914,-9.42311 -3.3273,-15.59296 -3.6746,-7.4677 -8.8126,-12.56736 -16.4787,-16.35581 -6.8525,-3.38635 -22.1201,-3.4228 -28.9258,-0.069 -7.6243,3.75712 -12.8698,8.96486 -16.5407,16.42156 -3.0206,6.13575 -3.3743,7.77436 -3.3653,15.59295 0.01,6.75672 0.5098,9.82317 2.2156,13.53072 2.5065,5.44827 9.2531,13.18027 14.1308,16.19484 8.2536,5.101 20.1833,6.08336 30.5879,2.51876 z M 230.11916,316.46924 c 7.05773,-3.23114 13.39781,-9.608 16.82908,-16.92673 2.26931,-4.84031 2.71498,-7.22154 2.71498,-14.50606 0,-7.24562 -0.44969,-9.67389 -2.66695,-14.40114 -3.67875,-7.84317 -7.9345,-12.35578 -15.49621,-16.43149 -5.94722,-3.20551 -7.15609,-3.47505 -15.6721,-3.49436 -7.86572,-0.0178 -10.08257,0.37982 -15.01872,2.69406 -7.38811,3.46381 -13.6816,9.76547 -17.10467,17.12687 -3.59561,7.73247 -3.81973,20.67841 -0.485,28.01522 2.53959,5.58739 9.24089,13.18914 14.48276,16.4288 8.89295,5.49613 22.32399,6.11548 32.41683,1.49483 z m 159.94851,0 c 7.05773,-3.23114 13.39781,-9.608 16.82908,-16.92673 2.27095,-4.84382 2.71499,-7.21978 2.71499,-14.52762 0,-7.79603 -0.36105,-9.47009 -3.35332,-15.54827 -3.84118,-7.80253 -8.4782,-12.30476 -16.59346,-16.11114 -4.72725,-2.21725 -7.15551,-2.66695 -14.40114,-2.66695 -10.46669,0 -17.74997,2.88296 -24.60746,9.74046 -6.80115,6.80114 -9.69155,14.11988 -9.71826,24.60746 -0.019,7.45295 0.38258,9.53187 2.77275,14.35436 4.71546,9.51416 12.78852,16.49727 22.1234,19.13652 6.84138,1.93426 17.48798,1.03007 24.23342,-2.05809 z m 159.94851,0 c 7.05773,-3.23114 13.39781,-9.608 16.82909,-16.92673 2.27095,-4.84382 2.71498,-7.21978 2.71498,-14.52762 0,-7.79603 -0.36104,-9.47009 -3.35332,-15.54827 -3.84118,-7.80253 -8.4782,-12.30476 -16.59346,-16.11114 -4.72725,-2.21725 -7.15551,-2.66695 -14.40114,-2.66695 -10.46669,0 -17.74997,2.88296 -24.60746,9.74046 -6.80115,6.80114 -9.69155,14.11988 -9.71826,24.60746 -0.019,7.45295 0.38259,9.53187 2.77275,14.35436 4.71547,9.51416 12.78852,16.49727 22.1234,19.13652 6.84138,1.93426 17.48798,1.03007 24.23342,-2.05809 z m 160.06869,-0.14378 c 7.23672,-3.54061 13.4043,-9.73399 16.70542,-16.77534 2.27309,-4.84851 2.71847,-7.22638 2.71847,-14.51367 0,-7.24562 -0.44969,-9.67389 -2.66694,-14.40114 -3.67876,-7.84317 -7.93451,-12.35578 -15.49622,-16.43149 -5.94993,-3.20696 -7.1536,-3.47504 -15.6902,-3.49436 -8.40941,-0.0191 -9.86795,0.28516 -16.12182,3.36239 -7.62617,3.75245 -12.64972,9.03614 -16.3575,17.20458 -3.44875,7.59778 -3.28252,20.44905 0.36365,28.11438 4.45306,9.36164 12.66502,16.44309 22.19154,19.13652 7.06164,1.99654 17.74697,1.03045 24.3536,-2.20187 z m 159.9526,-0.002 c 7.05352,-3.45096 13.44784,-9.91123 16.75981,-16.93264 2.21381,-4.69329 2.65999,-7.10471 2.65999,-14.37592 0,-7.79604 -0.36104,-9.47009 -3.35332,-15.54827 -3.84117,-7.80253 -8.47819,-12.30477 -16.59345,-16.11114 -8.1606,-3.82763 -20.64169,-3.82763 -28.80228,0 -8.11689,3.80713 -12.75284,8.30925 -16.59346,16.11444 -3.00415,6.10528 -3.35023,7.72425 -3.32368,15.54828 0.0244,7.18587 0.49573,9.73264 2.66,14.37261 4.40349,9.44066 13.39427,16.98547 23.18354,19.45498 6.43699,1.62385 17.32743,0.45008 23.40285,-2.52234 z m 159.94853,0 c 7.0724,-3.46018 13.463,-9.92817 16.7302,-16.93264 3.6305,-7.78346 3.7954,-20.65637 0.3602,-28.11438 -3.7817,-8.21027 -8.7852,-13.46203 -16.3913,-17.20459 -6.2538,-3.07722 -7.7124,-3.38141 -16.1218,-3.36238 -8.5366,0.0193 -9.7403,0.28739 -15.69019,3.49436 -7.56171,4.07571 -11.81746,8.58831 -15.49621,16.43149 -2.21726,4.72729 -2.66695,7.15556 -2.66695,14.40118 0,7.28729 0.44539,9.66516 2.71847,14.51367 4.3987,9.38248 13.31616,16.81373 23.15468,19.29567 6.437,1.62385 17.3275,0.45009 23.4029,-2.52234 z m 159.9485,0 c 6.9965,-3.4231 12.9988,-9.49666 16.5681,-16.76484 3.8141,-7.76678 4.0336,-20.47228 0.4886,-28.28218 -3.7079,-8.16844 -8.7314,-13.45213 -16.3575,-17.20459 -6.2539,-3.07722 -7.7124,-3.38141 -16.1219,-3.36238 -8.5366,0.0193 -9.7402,0.28739 -15.6902,3.49436 -7.5617,4.07571 -11.8174,8.58831 -15.4962,16.43149 -2.2172,4.72729 -2.6669,7.15556 -2.6669,14.40118 0,7.28729 0.4453,9.66516 2.7184,14.51367 4.3987,9.38248 13.3162,16.81373 23.1547,19.29567 6.437,1.62385 17.3275,0.45009 23.4029,-2.52234 z M 231.08899,148.805 c 7.60675,-3.74479 12.12523,-8.42967 15.90728,-16.4931 3.64583,-7.77298 3.79646,-20.61285 0.33038,-28.16116 -3.76458,-8.198393 -8.77413,-13.45993 -16.38061,-17.204587 -6.14494,-3.025147 -7.79735,-3.383308 -15.60918,-3.383308 -7.47933,0 -9.57243,0.410411 -14.54371,2.851703 -7.38705,3.62763 -13.34643,9.587007 -16.97406,16.974062 -2.45402,4.99719 -2.8466,7.02238 -2.8151,14.52215 0.0395,9.39887 1.87084,15.04407 7.10789,21.9102 9.48025,12.42924 28.08069,16.31752 42.97711,8.98404 z m 159.94851,0 c 7.60675,-3.74479 12.12523,-8.42967 15.90729,-16.4931 2.21726,-4.72724 2.66695,-7.15551 2.66695,-14.40114 0,-10.46669 -2.88296,-17.74997 -9.74046,-24.607461 -6.80114,-6.801143 -14.11988,-9.691542 -24.60746,-9.718255 -7.48254,-0.01906 -9.53645,0.381125 -14.52216,2.829504 -7.45542,3.661208 -13.80997,10.015117 -17.14357,17.141862 -3.55363,7.59715 -3.74137,20.5773 -0.40385,27.92264 8.61207,18.95375 29.31064,26.44953 47.84326,17.32595 z m 159.94851,0 c 7.60675,-3.74479 12.12523,-8.42967 15.90729,-16.4931 2.21726,-4.72724 2.66695,-7.15551 2.66695,-14.40114 0,-7.28452 -0.44567,-9.66574 -2.71498,-14.50606 -3.46381,-7.388116 -9.76548,-13.681606 -17.12688,-17.104673 -8.25522,-3.83869 -20.72064,-3.862442 -28.86041,-0.05499 -7.19171,3.363986 -13.94739,10.11967 -17.31137,17.311373 -3.55364,7.59715 -3.74137,20.5773 -0.40385,27.92264 8.61207,18.95375 29.31063,26.44953 47.84325,17.32595 z m 160.00942,-0.03 c 7.39202,-3.63908 12.44897,-8.98596 16.17676,-17.10423 3.48815,-7.59638 3.31695,-20.38406 -0.37841,-28.26608 -3.46381,-7.388122 -9.76547,-13.681612 -17.12688,-17.104679 -8.25862,-3.840276 -20.72274,-3.862762 -28.86041,-0.05207 -7.37413,3.453146 -13.90111,9.940869 -17.2529,17.149129 -3.61306,7.77017 -3.82561,20.67993 -0.46232,28.08196 8.62555,18.98343 29.30792,26.45087 47.90416,17.29597 z m 158.67607,0.67919 c 7.28449,-3.33495 13.60329,-9.64139 17.07079,-17.03738 2.26931,-4.84032 2.71498,-7.22155 2.71498,-14.50607 0,-7.28452 -0.44567,-9.66574 -2.71498,-14.50606 -3.46381,-7.388116 -9.76547,-13.681606 -17.12687,-17.104673 -8.30895,-3.863671 -20.70318,-3.863671 -29.01212,0 -28.63437,13.315026 -25.97654,55.273893 4.11264,64.926063 7.01041,2.24884 17.855,1.47886 24.95556,-1.77188 z m 159.9485,0 c 7.2979,-3.34108 13.6156,-9.65465 17.0486,-17.03738 2.2415,-4.82031 2.6928,-7.25165 2.6928,-14.50606 0,-7.25724 -0.4511,-9.68515 -2.6963,-14.51367 -3.3518,-7.20827 -9.8787,-13.695993 -17.2529,-17.149139 -8.1376,-3.810692 -20.6018,-3.788206 -28.8604,0.05206 -28.63436,13.315026 -25.97653,55.273889 4.1127,64.926059 7.0104,2.24884 17.855,1.47886 24.9555,-1.77188 z m 159.9486,0 c 7.2978,-3.34108 13.6156,-9.65465 17.0485,-17.03738 3.8387,-8.25522 3.8625,-20.72065 0.055,-28.86042 -3.3639,-7.1917 -10.1196,-13.947385 -17.3114,-17.311371 -8.1397,-3.80745 -20.6051,-3.783698 -28.8604,0.05499 -28.6962,13.343807 -26.037,55.252941 4.1199,64.928161 7.0028,2.24671 17.8509,1.47534 24.9484,-1.77398 z"
       id="path2411" />
  </g>
  <g
     inkscape:groupmode="layer"
     id="layer3"
     inkscape:label="Layer 3"
     transform="translate(-150.20174,-8.5927372)"
     style="display:inline">
    <path
       style="opacity:0.8;fill:#00ffff;fill-opacity:1;stroke:none;stroke-width:4.2048;stroke-dasharray:none;stroke-opacity:1"
       d="m 684.91286,145.85669 c -6.8978,-2.43387 -15.78585,-11.75702 -17.85692,-18.73105 -3.51231,-11.82725 -1.1693,-21.11716 7.51666,-29.803122 8.68596,-8.68596 17.97587,-11.028974 29.80312,-7.516659 7.51618,2.232066 16.35826,10.980231 18.93293,18.731851 7.70364,23.19348 -15.23683,45.49058 -38.39579,37.31898 z"
       id="path2718" />
    <path
       style="opacity:0.8;fill:#00ffff;fill-opacity:1;stroke:none;stroke-width:4.2048;stroke-dasharray:none;stroke-opacity:1"
       d="m 525.47188,312.95827 c -7.25612,-2.3859 -15.88273,-11.16174 -18.23991,-18.55543 -3.53579,-11.09059 -1.42565,-20.54881 6.52535,-29.24848 21.54724,-23.57611 59.78185,-0.62468 49.47072,29.69623 -2.49405,7.334 -11.54,16.13453 -18.80083,18.29077 -6.85453,2.03557 -12.36983,1.9823 -18.95533,-0.18309 z"
       id="path6494" />
    <path
       style="opacity:0.8;fill:#00ffff;fill-opacity:1;stroke:none;stroke-width:4.2048;stroke-dasharray:none;stroke-opacity:1"
       d="m 845.3689,312.95827 c -7.67537,-2.52376 -16.23109,-11.4029 -18.49653,-19.19574 -6.91712,-23.79407 15.71092,-45.03601 38.78021,-36.40468 10.8993,4.07795 19.1908,15.97435 19.1908,27.53442 0,8.09532 -2.76271,14.34144 -9.15182,20.69104 -8.74941,8.69531 -18.8419,11.14997 -30.32266,7.37496 z"
       id="path6496" />
    <path
       style="opacity:0.8;fill:#00ffff;fill-opacity:1;stroke:none;stroke-width:4.2048;stroke-dasharray:none;stroke-opacity:1"
       d="m 687.47101,480.52218 c -9.28421,-3.0726 -14.85924,-7.77653 -18.99395,-16.02615 -9.53481,-19.02397 5.10939,-42.02577 26.77635,-42.05789 25.44504,-0.0377 38.95677,30.07452 21.97166,48.96605 -7.51066,8.35367 -20.25906,12.26035 -29.75406,9.11799 z"
       id="path6498" />
    <path
       style="opacity:0.8;fill:#00ffff;fill-opacity:1;stroke:none;stroke-width:4.2048;stroke-dasharray:none;stroke-opacity:1"
       d="m 1007.368,480.52218 c -6.8531,-2.26805 -10.34362,-4.49633 -14.57719,-9.30593 -16.66169,-18.92867 -3.03374,-48.78813 22.26709,-48.78813 26.5518,0 39.5485,32.55781 20.3414,50.9567 -7.0108,6.71581 -19.6109,9.92407 -28.0313,7.13736 z"
       id="path7226" />
    <path
       style="opacity:0.8;fill:#00ffff;fill-opacity:1;stroke:none;stroke-width:4.2048;stroke-dasharray:none;stroke-opacity:1"
       d="m 685.42039,312.95827 c -7.40943,-2.43631 -16.18824,-11.37884 -18.36445,-18.70694 -3.33967,-11.24589 -1.23053,-20.47453 6.64989,-29.09697 14.91403,-16.31832 41.39691,-11.33934 49.09282,9.22982 4.3756,11.69485 1.98323,22.19217 -7.13876,31.32367 -8.64436,8.65337 -18.66547,11.0561 -30.2395,7.25042 z"
       id="path10134" />
    <path
       style="opacity:0.8;fill:#00ffff;fill-opacity:1;stroke:none;stroke-width:4.2048;stroke-dasharray:none;stroke-opacity:1"
       d="m 847.41952,480.52218 c -12.99274,-4.29993 -20.76998,-13.87141 -21.7696,-26.79192 -1.73652,-22.4454 22.27895,-38.31308 42.60995,-28.15356 26.93433,13.45925 18.74635,53.47854 -11.43319,55.88049 -2.91825,0.23226 -7.15147,-0.18849 -9.40716,-0.93501 z"
       id="path10136" />
    <path
       style="opacity:0.8;fill:#00ffff;fill-opacity:1;stroke:none;stroke-width:4.2048;stroke-dasharray:none;stroke-opacity:1"
       d="m 1004.8099,145.85669 c -6.43187,-2.26947 -15.53131,-11.55536 -17.76773,-18.13179 -3.87144,-11.38434 -1.35032,-21.60932 7.51666,-30.485537 8.58787,-8.596872 17.92817,-10.933506 29.71387,-7.433504 7.7058,2.288358 16.6017,11.184291 18.8901,18.890031 3.5,11.78578 1.1633,21.126 -7.4335,29.71392 -8.8398,8.83061 -19.6316,11.42978 -30.9194,7.44688 z"
       id="path10140" />
    <path
       style="opacity:0.8;fill:#00ffff;fill-opacity:1;stroke:none;stroke-width:4.2048;stroke-dasharray:none;stroke-opacity:1"
       d="m 365.01584,145.85669 c -6.8978,-2.43387 -15.78586,-11.75702 -17.85693,-18.73105 -3.51231,-11.82725 -1.1693,-21.11716 7.51666,-29.803122 8.68596,-8.68596 17.97588,-11.028974 29.80313,-7.516659 7.26083,2.156236 16.30677,10.956771 18.80082,18.290771 7.9933,23.50508 -14.83046,46.02843 -38.26368,37.76006 z"
       id="path10146" />
    <path
       style="opacity:0.8;fill:#00ffff;fill-opacity:1;stroke:none;stroke-width:4.2048;stroke-dasharray:none;stroke-opacity:1"
       d="m 365.73995,313.00719 c -10.13574,-3.37877 -18.7779,-14.38982 -19.91103,-25.36879 -1.71657,-16.63202 12.57847,-32.33597 29.4349,-32.33597 10.74177,0 21.78124,6.84558 26.75188,16.58884 3.12926,6.13385 3.71807,15.52692 1.40909,22.47861 -2.58835,7.79278 -11.41053,16.53365 -18.94609,18.77148 -6.81405,2.02355 -12.38563,1.98366 -18.73875,-0.13417 z"
       id="path10148" />
    <path
       style="opacity:0.8;fill:#00ffff;fill-opacity:1;stroke:none;stroke-width:4.2048;stroke-dasharray:none;stroke-opacity:1"
       d="m 1164.1928,145.54687 c -14.2096,-5.4678 -22.1674,-22.45787 -17.3342,-37.00916 2.5747,-7.75162 11.4167,-16.499785 18.9329,-18.731851 6.9261,-2.056821 11.5037,-2.056821 18.4298,0 7.7057,2.288358 16.6016,11.184291 18.89,18.890031 3.5,11.78578 1.1634,21.126 -7.4335,29.71392 -9.0705,9.06107 -20.0292,11.54519 -31.485,7.13706 z"
       id="path10150" />
    <path
       style="fill:#808080;fill-opacity:0.8;stroke:#000000;stroke-width:0.888603"
       d="m 375.10097,137.345 c -15.84616,-6.38617 -23.38467,-22.32304 -18.00037,-38.053887 2.12638,-6.212451 8.94007,-13.6128 15.49938,-16.833891 4.34071,-2.131596 6.12509,-2.481292 12.60936,-2.471142 6.4449,0.01009 8.29658,0.37516 12.62025,2.488163 6.40249,3.128936 12.45514,9.772492 14.96481,16.425804 2.53005,6.707343 2.14468,17.369663 -0.83668,23.149033 -2.97856,5.77393 -8.5654,11.35389 -14.05898,14.04165 -6.61598,3.23689 -16.52544,3.78209 -22.79777,1.25427 z"
       id="path5362"
       transform="translate(150.20174,8.5927372)" />
    <path
       style="fill:#808080;fill-opacity:0.8;stroke:#000000;stroke-width:0.888603"
       d="M 54.583545,136.9866 C 44.885641,132.99696 38.839987,125.96602 36.324412,115.75172 34.64533,108.93393 35.32727,103.2454 38.678294,96.116403 c 2.345697,-4.990255 9.310518,-11.631285 14.889149,-14.196958 6.518747,-2.998043 17.635127,-2.761798 24.31105,0.516657 11.899788,5.843826 18.53841,18.526478 16.543477,31.605218 -2.805594,18.39342 -22.845971,29.93584 -39.838425,22.94528 z"
       id="path5433"
       transform="translate(150.20174,8.5927372)" />
    <path
       style="fill:#808080;fill-opacity:0.8;stroke:#000000;stroke-width:0.888603"
       d="m 56.714344,304.89775 c -5.442079,-1.77967 -9.483981,-4.5338 -13.960099,-9.51232 -9.994299,-11.11606 -9.628606,-27.61906 0.86313,-38.95139 6.591894,-7.12003 11.772389,-9.36094 21.694934,-9.38451 6.476293,-0.0154 8.267825,0.33304 12.566184,2.44391 8.705114,4.27496 15.208516,12.9747 16.571121,22.16753 2.616797,17.65425 -10.069137,33.32192 -27.650892,34.15004 -3.805283,0.17923 -7.869023,-0.18879 -10.084378,-0.91326 z"
       id="path5435"
       transform="translate(150.20174,8.5927372)" />
    <path
       style="fill:#808080;fill-opacity:0.8;stroke:#000000;stroke-width:0.888603"
       d="m 56.714344,471.9596 c -15.099241,-4.95613 -24.087255,-20.54257 -20.346712,-35.28399 3.415073,-13.45873 13.63181,-22.04086 27.167472,-22.82085 8.662809,-0.4992 15.41882,1.90307 21.592359,7.67769 19.313877,18.06587 7.967296,49.75725 -18.359452,51.27858 -3.947295,0.2281 -7.744509,-0.0935 -10.053667,-0.85143 z"
       id="path5437"
       transform="translate(150.20174,8.5927372)" />
    <path
       style="fill:#808080;fill-opacity:0.8;stroke:#000000;stroke-width:0.888603"
       d="m 216.66286,471.9596 c -15.09924,-4.95613 -24.08726,-20.54257 -20.34671,-35.28399 3.41507,-13.45873 13.6318,-22.04086 27.16747,-22.82085 8.52209,-0.49109 14.94132,1.77095 21.33264,7.51729 6.43834,5.78862 9.09019,11.40837 9.56199,20.26357 0.31094,5.83616 0.0207,8.05839 -1.62126,12.4129 -2.41,6.39141 -8.96587,13.33772 -15.44007,16.35963 -5.46696,2.55177 -15.34577,3.29383 -20.65406,1.55145 z"
       id="path5439"
       transform="translate(150.20174,8.5927372)" />
    <path
       style="fill:#808080;fill-opacity:0.8;stroke:#000000;stroke-width:0.888603"
       d="m 376.61137,471.9596 c -8.53493,-2.80148 -16.80836,-10.66946 -19.53372,-18.57644 -2.48008,-7.19535 -2.13432,-16.02414 0.86787,-22.16038 5.18634,-10.6005 14.15295,-16.71025 25.48661,-17.36629 8.52169,-0.49328 14.93979,1.76784 21.33264,7.51556 6.43834,5.78862 9.09019,11.40837 9.56199,20.26357 0.31095,5.83616 0.0207,8.05839 -1.62125,12.4129 -2.41001,6.39141 -8.96588,13.33772 -15.44008,16.35963 -5.46696,2.55177 -15.34577,3.29383 -20.65406,1.55145 z"
       id="path5445"
       transform="translate(150.20174,8.5927372)" />
    <path
       style="fill:#808080;fill-opacity:0.8;stroke:#000000;stroke-width:0.888603"
       d="m 1016.5617,471.99164 c -5.9476,-1.9707 -8.7538,-3.78585 -13.1978,-8.53678 -6.13117,-6.55476 -8.05374,-11.33914 -8.05374,-20.04204 0,-8.08195 1.86155,-13.29517 6.97634,-19.53712 7.3298,-8.94508 21.7363,-12.61844 32.9293,-8.39631 7.3008,2.75393 14.5306,9.9876 17.2675,17.27675 4.1392,11.0235 1.0507,24.56612 -7.3288,32.13653 -7.5045,6.77985 -20.1104,9.9096 -28.5928,7.09897 z"
       id="path5449"
       transform="translate(150.20174,8.5927372)" />
    <path
       style="fill:#808080;fill-opacity:0.8;stroke:#000000;stroke-width:0.888603"
       d="m 1015.4952,304.52292 c -6.7907,-2.42561 -11.4066,-6.0004 -15.3251,-11.86843 -10.22556,-15.31284 -4.5348,-35.39528 12.2614,-43.26991 4.1949,-1.96674 6.2586,-2.35299 12.5719,-2.35299 6.4739,0 8.2771,0.35554 12.6205,2.48841 13.7842,6.76897 20.2178,23.15155 14.7895,37.66 -2.3398,6.25375 -9.3988,13.679 -15.5899,16.3988 -6.0292,2.64871 -15.3955,3.06332 -21.3283,0.94412 z"
       id="path5451"
       transform="translate(150.20174,8.5927372)" />
    <path
       style="fill:#808080;fill-opacity:0.8;stroke:#000000;stroke-width:0.888603"
       d="m 856.61315,304.93389 c -8.62607,-2.8572 -14.8568,-8.29001 -18.85089,-16.43684 -2.07243,-4.22715 -2.46738,-6.17065 -2.46738,-12.14156 0,-5.96971 0.39509,-7.9147 2.46564,-12.13802 3.23996,-6.6086 8.51181,-11.9213 14.71584,-14.82987 4.20205,-1.97001 6.26287,-2.35601 12.57851,-2.35601 6.47395,0 8.27714,0.35554 12.62049,2.48841 13.78421,6.76897 20.21785,23.15155 14.78954,37.66 -2.33225,6.23351 -9.4395,13.7247 -15.62172,16.46563 -5.21108,2.31037 -15.21997,2.94774 -20.23003,1.28826 z"
       id="path5453"
       transform="translate(150.20174,8.5927372)" />
    <path
       style="fill:#808080;fill-opacity:0.8;stroke:#000000;stroke-width:0.888603"
       d="m 694.99799,137.345 c -6.81474,-2.74641 -11.26045,-6.29868 -14.8795,-11.88921 -9.92941,-15.33843 -4.28801,-34.813409 12.4683,-43.042491 4.25046,-2.087418 6.05534,-2.435888 12.51957,-2.417162 9.2352,0.02675 14.19821,2.12328 20.96766,8.857383 14.05159,13.97821 9.7986,38.39303 -8.22395,47.21064 -6.67203,3.26432 -16.55582,3.8183 -22.85208,1.28084 z"
       id="path5455"
       transform="translate(150.20174,8.5927372)" />
    <path
       style="fill:#808080;fill-opacity:0.8;stroke:#000000;stroke-width:0.888603"
       d="m 858.39035,639.44409 c -8.87262,-2.38761 -16.71191,-8.80372 -20.60651,-16.86549 -3.43054,-7.10115 -3.4711,-17.00941 -0.0994,-24.27919 4.86143,-10.48181 14.00699,-16.69136 25.59323,-17.37698 9.34484,-0.55299 15.59472,1.8462 22.31458,8.56605 6.64555,6.64556 9.07069,12.91752 8.62822,22.31458 -0.53004,11.2567 -6.23443,20.00135 -16.27044,24.94206 -6.04075,2.97385 -14.30204,4.1138 -19.55968,2.69897 z"
       id="path5457"
       transform="translate(150.20174,8.5927372)" />
    <path
       style="fill:#808080;fill-opacity:0.8;stroke:#000000;stroke-width:0.888603"
       d="m 378.54481,639.44409 c -5.51292,-1.48352 -9.424,-3.66516 -13.63944,-7.6082 -12.32046,-11.52435 -12.71224,-30.60947 -0.87128,-42.44371 5.44359,-5.4405 11.28137,-7.98944 19.39804,-8.46975 8.65986,-0.51246 15.41001,1.8845 21.59236,7.66736 6.29968,5.89261 8.83733,11.37673 9.30227,20.10316 0.46594,8.7452 -1.6368,15.13358 -6.97876,21.20237 -6.65334,7.55859 -19.89086,11.94707 -28.80319,9.54877 z"
       id="path6301"
       transform="translate(150.20174,8.5927372)" />
    <path
       style="fill:#808080;fill-opacity:0.8;stroke:#000000;stroke-width:0.888603"
       d="m 1016.962,639.08126 c -5.4255,-1.53463 -9.6513,-4.25857 -14.1091,-9.09464 -5.51583,-5.98403 -7.45834,-11.01336 -7.54513,-19.53515 -0.0646,-6.34425 0.24889,-7.78049 2.8527,-13.06959 5.05523,-10.26866 13.50483,-15.83767 25.00233,-16.47872 9.3735,-0.52262 15.621,1.88525 22.3495,8.61374 6.6552,6.65513 9.0967,12.9408 8.6567,22.28616 -0.5301,11.2567 -6.2344,20.00135 -16.2705,24.94206 -6.6175,3.25779 -14.5491,4.14282 -20.9365,2.33614 z"
       id="path6303"
       transform="translate(150.20174,8.5927372)" />
  </g>
  <g
     inkscape:groupmode="layer"
     id="layer4"
     inkscape:label="Layer 4"
     style="display:inline">
    <path
       style="font-variation-settings:normal;opacity:1;vector-effect:none;fill:#808080;fill-opacity:0.8;stroke:#000000;stroke-width:5;stroke-linecap:butt;stroke-linejoin:miter;stroke-miterlimit:4;stroke-dasharray:none;stroke-dashoffset:0;stroke-opacity:1;-inkscape-stroke:none;marker-end:url(#TriangleStart);stop-color:#000000;stop-opacity:1"
       d="m 544.98985,150.73784 v 64.92853"
       id="path6421" />
    <path
       style="font-variation-settings:normal;fill:#808080;fill-opacity:0.8;stroke:#000000;stroke-width:5;stroke-linecap:butt;stroke-linejoin:miter;stroke-miterlimit:4;stroke-dasharray:none;stroke-dashoffset:0;stroke-opacity:1;marker-end:url(#TriangleStart-5);stop-color:#000000"
       d="m 502.77987,152.57138 -62.16442,66.35368"
       id="path6421-8" />
    <path
       style="font-variation-settings:normal;fill:#808080;fill-opacity:0.8;stroke:#000000;stroke-width:5;stroke-linecap:butt;stroke-linejoin:miter;stroke-miterlimit:4;stroke-dasharray:none;stroke-dashoffset:0;stroke-opacity:1;marker-end:url(#TriangleStart-5-5);stop-color:#000000"
       d="m 833.02616,152.57138 -62.16442,66.35368"
       id="path6421-8-8" />
    <path
       style="font-variation-settings:normal;vector-effect:none;fill:#808080;fill-opacity:0.8;stroke:#000000;stroke-width:5;stroke-linecap:butt;stroke-linejoin:miter;stroke-miterlimit:4;stroke-dasharray:none;stroke-dashoffset:0;stroke-opacity:1;-inkscape-stroke:none;marker-end:url(#TriangleStart-83);stop-color:#000000"
       d="m 544.96777,317.72142 v 64.92853"
       id="path6421-89" />
    <path
       style="font-variation-settings:normal;fill:#808080;fill-opacity:0.8;stroke:#000000;stroke-width:5;stroke-linecap:butt;stroke-linejoin:miter;stroke-miterlimit:4;stroke-dasharray:none;stroke-dashoffset:0;stroke-opacity:1;marker-end:url(#TriangleStart-5-7-3);stop-color:#000000"
       d="m 587.17775,319.55496 62.16442,66.35368"
       id="path6421-8-2-7" />
    <path
       style="font-variation-settings:normal;vector-effect:none;fill:#808080;fill-opacity:0.8;stroke:#000000;stroke-width:5;stroke-linecap:butt;stroke-linejoin:miter;stroke-miterlimit:4;stroke-dasharray:none;stroke-dashoffset:0;stroke-opacity:1;-inkscape-stroke:none;marker-end:url(#TriangleStart-83-7);stop-color:#000000"
       d="m 705.02321,317.72142 v 64.92853"
       id="path6421-89-9" />
    <path
       style="font-variation-settings:normal;fill:#808080;fill-opacity:0.8;stroke:#000000;stroke-width:5;stroke-linecap:butt;stroke-linejoin:miter;stroke-miterlimit:4;stroke-dasharray:none;stroke-dashoffset:0;stroke-opacity:1;marker-end:url(#TriangleStart-5-7-3-4);stop-color:#000000"
       d="m 747.23319,319.55496 62.16442,66.35368"
       id="path6421-8-2-7-1" />
    <path
       style="font-variation-settings:normal;vector-effect:none;fill:#808080;fill-opacity:0.8;stroke:#000000;stroke-width:5;stroke-linecap:butt;stroke-linejoin:miter;stroke-miterlimit:4;stroke-dasharray:none;stroke-dashoffset:0;stroke-opacity:1;-inkscape-stroke:none;marker-end:url(#TriangleStart-8);stop-color:#000000"
       d="m 225.39021,150.73784 v 64.92853"
       id="path6421-6" />
  </g>
</svg>
